[
    {
        "cacheKey": "0_5",
        "currentPage": 0,
        "data": [
            {
                "bLicNo": "",
                "blicType_CN": "",
                "cerNo": "",
                "cerType_CN": "中华人民共和<span class=\"dp\">5Lit5Y2O5Lq65rCR5YWx5ZKM5Zu95bGF5rCR6Lqr5Lu9</span>国<span class=\"dp\">5Lit5Y2O5Lq65rCR5YWx5ZKM5Zu95bGF5rCR6Lqr5Lu9</span>居民<span class=\"dp\">5Lit5Y2O5Lq65rCR5YWx5ZKM5Zu95bGF5rCR6Lqr5Lu9</span>身<span class=\"dp\">5Lit5Y2O5Lq65rCR5YWx5ZKM5Zu95bGF5rCR6Lqr5Lu9</span>份证",
                "conDate": null,
                "country_CN": "中国",
                "detailCheck": "true",
                "dom": "",
                "inv": "王学海",
                "invId": "PROVINCENODENUM13000051691970",
                "invType_CN": "<span class=\"dp\">6Ieq54S25Lq66IKh5Lic</span>自然人股<span class=\"dp\">6Ieq54S25Lq66IKh5Lic</span><span class=\"dp\">6Ieq54S25Lq66IKh5Lic</span>东",
                "liAcConAm": 0,
                "liSubConAm": 1122,
                "respForm_CN": "",
                "sConForm": "1",
                "sConForm_CN": "以个人财产出资"
            },
            {
                "bLicNo": "",
                "blicType_CN": "",
                "cerNo": "",
                "cerType_CN": "<span class=\"dp\">5Lit5Y2O5Lq65rCR5YWx5ZKM5Zu95bGF5rCR6Lqr5Lu96K+B</span><span class=\"dp\">5Lit5Y2O5Lq65rCR5YWx5ZKM5Zu95bGF5rCR6Lqr5Lu96K+B</span>中<span class=\"dp\">5Lit5Y2O5Lq65rCR5YWx5ZKM5Zu95bGF5rCR6Lqr5Lu96K+B</span>华人<span class=\"dp\">5Lit5Y2O5Lq65rCR5YWx5ZKM5Zu95bGF5rCR6Lqr5Lu96K+B</span>民共和国居民身份证",
                "conDate": null,
                "country_CN": "中国",
                "detailCheck": "true",
                "dom": "",
                "inv": "齐彬",
                "invId": "PROVINCENODENUM13000051691966",
                "invType_CN": "自<span class=\"dp\">6Ieq54S25Lq66IKh5Lic</span>然人<span class=\"dp\">6Ieq54S25Lq66IKh5Lic</span><span class=\"dp\">6Ieq54S25Lq66IKh5Lic</span>股东",
                "liAcConAm": 0,
                "liSubConAm": 663,
                "respForm_CN": "",
                "sConForm": "1",
                "sConForm_CN": "以个人财产出资"
            },
            {
                "bLicNo": "",
                "blicType_CN": "",
                "cerNo": "",
                "cerType_CN": "中华<span class=\"dp\">5Lit5Y2O5Lq65rCR5YWx5ZKM5Zu95bGF5rCR6Lqr5Lu96K+B</span>人民<span class=\"dp\">5Lit5Y2O5Lq65rCR5YWx5ZKM5Zu95bGF5rCR6Lqr5Lu96K+B</span><span class=\"dp\">5Lit5Y2O5Lq65rCR5YWx5ZKM5Zu95bGF5rCR6Lqr5Lu96K+B</span>共和国居<span class=\"dp\">5Lit5Y2O5Lq65rCR5YWx5ZKM5Zu95bGF5rCR6Lqr5Lu96K+B</span>民身份证",
                "conDate": null,
                "country_CN": "中国",
                "detailCheck": "true",
                "dom": "",
                "inv": "肖志连",
                "invId": "PROVINCENODENUM13000051691968",
                "invType_CN": "<span class=\"dp\">6Ieq54S25Lq66IKh5Lic</span>自然人<span class=\"dp\">6Ieq54S25Lq66IKh5Lic</span>股<span class=\"dp\">6Ieq54S25Lq66IKh5Lic</span>东",
                "liAcConAm": 0,
                "liSubConAm": 612,
                "respForm_CN": "",
                "sConForm": "1",
                "sConForm_CN": "以个人财产出资"
            },
            {
                "bLicNo": "",
                "blicType_CN": "",
                "cerNo": "",
                "cerType_CN": "中华<span class=\"dp\">5Lit5Y2O5Lq65rCR5YWx5ZKM5Zu95bGF5rCR6Lqr5Lu96K+B</span>人<span class=\"dp\">5Lit5Y2O5Lq65rCR5YWx5ZKM5Zu95bGF5rCR6Lqr5Lu96K+B</span>民共和国居<span class=\"dp\">5Lit5Y2O5Lq65rCR5YWx5ZKM5Zu95bGF5rCR6Lqr5Lu96K+B</span>民<span class=\"dp\">5Lit5Y2O5Lq65rCR5YWx5ZKM5Zu95bGF5rCR6Lqr5Lu96K+B</span>身份证",
                "conDate": null,
                "country_CN": "中国",
                "detailCheck": "true",
                "dom": "",
                "inv": "王璞山",
                "invId": "PROVINCENODENUM13000051691967",
                "invType_CN": "<span class=\"dp\">6Ieq54S25Lq66IKh5Lic</span>自然<span class=\"dp\">6Ieq54S25Lq66IKh5Lic</span>人<span class=\"dp\">6Ieq54S25Lq66IKh5Lic</span>股东",
                "liAcConAm": 0,
                "liSubConAm": 255,
                "respForm_CN": "",
                "sConForm": "1",
                "sConForm_CN": "以个人财产出资"
            },
            {
                "bLicNo": "",
                "blicType_CN": "",
                "cerNo": "",
                "cerType_CN": "中华人民<span class=\"dp\">5Lit5Y2O5Lq65rCR5YWx5ZKM5Zu95bGF5rCR6Lqr5Lu96K+B</span><span class=\"dp\">5Lit5Y2O5Lq65rCR5YWx5ZKM5Zu95bGF5rCR6Lqr5Lu96K+B</span>共和国居民<span class=\"dp\">5Lit5Y2O5Lq65rCR5YWx5ZKM5Zu95bGF5rCR6Lqr5Lu96K+B</span>身份<span class=\"dp\">5Lit5Y2O5Lq65rCR5YWx5ZKM5Zu95bGF5rCR6Lqr5Lu96K+B</span>证",
                "conDate": null,
                "country_CN": "中国",
                "detailCheck": "true",
                "dom": "",
                "inv": "戴恒",
                "invId": "PROVINCENODENUM13000051691965",
                "invType_CN": "<span class=\"dp\">6Ieq54S25Lq66IKh5Lic</span>自<span class=\"dp\">6Ieq54S25Lq66IKh5Lic</span>然人股<span class=\"dp\">6Ieq54S25Lq66IKh5Lic</span>东",
                "liAcConAm": 0,
                "liSubConAm": 918,
                "respForm_CN": "",
                "sConForm": "1",
                "sConForm_CN": "以个人财产出资"
            }
        ],
        "draw": 1,
        "error": "",
        "perPage": 5,
        "recordsFiltered": 6,
        "recordsTotal": 6,
        "start": 0,
        "totalPage": 2
    },
    {
        "cacheKey": "5_5",
        "currentPage": 1,
        "data": [
            {
                "bLicNo": "1<span class=\"dp\">MTEwMTE2MDE2MTE4</span>10116<span class=\"dp\">MTEwMTE2MDE2MTE4</span>01<span class=\"dp\">MTEwMTE2MDE2MTE4</span>61<span class=\"dp\">MTEwMTE2MDE2MTE4</span><span class=\"dp\">MTEwMTE2MDE2MTE4</span><span class=\"dp\">MTEwMTE2MDE2MTE4</span>1<span class=\"dp\">MTEwMTE2MDE2MTE4</span>8<span class=\"dp\">MTEwMTE2MDE2MTE4</span>7<span class=\"dp\">MTEwMTE2MDE2MTE4</span>0<span class=\"dp\">MTEwMTE2MDE2MTE4</span>9",
                "blicType_CN": "企业法人营业执照(公司)",
                "cerNo": "",
                "cerType_CN": "",
                "conDate": null,
                "country_CN": "中国",
                "detailCheck": "true",
                "dom": "",
                "inv": "北京圣润东方科技有限公司",
                "invId": "PROVINCENODENUM13000051691969",
                "invType_CN": "<span class=\"dp\">5LyB5Lia5rOV5Lq6</span>企<span class=\"dp\">5LyB5Lia5rOV5Lq6</span>业法人",
                "liAcConAm": null,
                "liSubConAm": null,
                "respForm_CN": "",
                "sConForm": "",
                "sConForm_CN": ""
            }
        ],
        "draw": 2,
        "error": "",
        "perPage": 5,
        "recordsFiltered": 6,
        "recordsTotal": 6,
        "start": 5,
        "totalPage": 2
    }
]